{
    "message": "The given data was invalid.",
    "errors": {
        "per_page": [
            "The per page must be an integer."
        ],
        "page": [
            "The page must be at least 1."
        ],
        "event_name": [
            "The event name format is invalid."
        ]
    }
}
