{
    "message": "The given data was invalid.",
    "errors": {
        "name": [
            "The name field is required."
        ],
        "last_name": [
            "The last name field is required."
        ],
        "email": [
            "The email field is required."
        ]
    }
}
